<?xml version="1.0" encoding="UTF-8" standalone="no"?>
<!-- Created with Inkscape (http://www.inkscape.org/) -->

<svg
   width="115.09709mm"
   height="79.718704mm"
   viewBox="0 0 115.09709 79.718704"
   version="1.1"
   id="svg5"
   sodipodi:docname="riverEW.svg"
   inkscape:version="1.1 (c68e22c387, 2021-05-23)"
   xmlns:inkscape="http://www.inkscape.org/namespaces/inkscape"
   xmlns:sodipodi="http://sodipodi.sourceforge.net/DTD/sodipodi-0.dtd"
   xmlns="http://www.w3.org/2000/svg"
   xmlns:svg="http://www.w3.org/2000/svg">
  <sodipodi:namedview
     id="namedview7"
     pagecolor="#ffffff"
     bordercolor="#666666"
     borderopacity="1.0"
     inkscape:showpageshadow="2"
     inkscape:pageopacity="0.0"
     inkscape:pagecheckerboard="0"
     inkscape:deskcolor="#d1d1d1"
     inkscape:document-units="mm"
     showgrid="true"
     showborder="false"
     inkscape:zoom="1.4142136"
     inkscape:cx="255.6191"
     inkscape:cy="126.92567"
     inkscape:window-width="1343"
     inkscape:window-height="735"
     inkscape:window-x="23"
     inkscape:window-y="0"
     inkscape:window-maximized="1"
     inkscape:current-layer="layer1"
     inkscape:pageshadow="2">
    <inkscape:grid
       type="axonomgrid"
       id="grid132"
       units="px"
       originy="0"
       spacingy="6.6145832"
       gridanglex="30" />
  </sodipodi:namedview>
  <defs
     id="defs2" />
  <g
     inkscape:label="Layer 1"
     inkscape:groupmode="layer"
     id="layer1"
     transform="translate(-286.15529,66.260403)">
    <path
       style="fill:#19ac46;fill-opacity:1;stroke:#000000;stroke-width:0.264583px;stroke-linecap:butt;stroke-linejoin:miter;stroke-opacity:1"
       d="m 343.70384,13.229168 c 0,0 0,-13.229173 0,-13.229173 0,0 57.28396,-33.07292 57.28396,-33.07292 v 13.22917 L 343.70384,13.229168 V -5e-6"
       id="path2563" />
    <path
       style="fill:#19ac46;fill-opacity:1;stroke:#000000;stroke-width:0.264583px;stroke-linecap:butt;stroke-linejoin:miter;stroke-opacity:1"
       d="M 343.70384,-66.145835 400.9878,-33.072925 343.70384,-5e-6 c 0,0 -57.28397,-33.07292 -57.28397,-33.07292 l 57.28397,-33.07291"
       id="path2179"
       inkscape:export-filename="riverNS.svg"
       inkscape:export-xdpi="96"
       inkscape:export-ydpi="96" />
    <path
       style="fill:#19ac46;fill-opacity:1;stroke:#000000;stroke-width:0.264583px;stroke-linecap:butt;stroke-linejoin:miter;stroke-opacity:1"
       d="m 286.41987,-33.072925 v 13.22917 l 57.28397,33.072923 c 0,0 0,-13.229173 0,-13.229173 0,0 -57.28397,-33.07292 -57.28397,-33.07292"
       id="path2181" />
    <path
       style="fill:#004dff;fill-opacity:1;stroke:#000000;stroke-width:0.264583px;stroke-linecap:butt;stroke-linejoin:miter;stroke-opacity:1"
       d="m 303.34048,-43.109362 57.28397,33.072917 22.91359,-13.229167 -57.28397,-33.072916 -22.91359,13.229166"
       id="path201" />
    <path
       style="fill:none;stroke:#000000;stroke-width:0.264583px;stroke-linecap:butt;stroke-linejoin:miter;stroke-opacity:1"
       d="M 360.62445,-10.036445 Z"
       id="path236" />
    <path
       style="fill:#004dff;fill-opacity:1;stroke:#000000;stroke-width:0.264583px;stroke-linecap:butt;stroke-linejoin:miter;stroke-opacity:1"
       d="M 360.62445,-10.036445 V 3.1927193 l 22.91359,-13.2291643 v -13.229167 l -22.91359,13.229167"
       id="path238" />
    <path
       style="fill:#000000;fill-opacity:0.5;stroke:#000000;stroke-width:0.264583px;stroke-linecap:butt;stroke-linejoin:miter;stroke-opacity:1"
       d="m 343.43927,13.114599 c 0,0 0,-13.22917345 0,-13.22917345 0,0 57.28396,-33.07291955 57.28396,-33.07291955 v 13.22917 L 343.43927,13.114599 V -0.11457445"
       id="path2183"
       inkscape:export-filename="riverNS.svg"
       inkscape:export-xdpi="96"
       inkscape:export-ydpi="96" />
    <path
       style="fill:#010502;fill-opacity:0.3;stroke:#000000;stroke-width:0.264583px;stroke-linecap:butt;stroke-linejoin:miter;stroke-opacity:1"
       d="m 286.41987,-33.072925 v 13.22917 l 57.28397,33.072923 c 0,0 0,-13.229173 0,-13.229173 0,0 -57.28397,-33.07292 -57.28397,-33.07292"
       id="path2539" />
  </g>
</svg>
