<?xml version="1.0" encoding="UTF-8" standalone="no"?>
<!-- Created with Inkscape (http://www.inkscape.org/) -->

<svg
   width="115.0971mm"
   height="79.718712mm"
   viewBox="0 0 115.0971 79.718712"
   version="1.1"
   id="svg5"
   sodipodi:docname="riverEW.svg"
   inkscape:version="1.2 (dc2aeda, 2022-05-15)"
   inkscape:export-filename="riverE.svg"
   inkscape:export-xdpi="96"
   inkscape:export-ydpi="96"
   xmlns:inkscape="http://www.inkscape.org/namespaces/inkscape"
   xmlns:sodipodi="http://sodipodi.sourceforge.net/DTD/sodipodi-0.dtd"
   xmlns="http://www.w3.org/2000/svg"
   xmlns:svg="http://www.w3.org/2000/svg">
  <sodipodi:namedview
     id="namedview7"
     pagecolor="#ffffff"
     bordercolor="#666666"
     borderopacity="1.0"
     inkscape:showpageshadow="2"
     inkscape:pageopacity="0.0"
     inkscape:pagecheckerboard="0"
     inkscape:deskcolor="#d1d1d1"
     inkscape:document-units="mm"
     showgrid="true"
     showborder="false"
     inkscape:zoom="1.4142136"
     inkscape:cx="211.42492"
     inkscape:cy="194.80791"
     inkscape:window-width="1343"
     inkscape:window-height="735"
     inkscape:window-x="23"
     inkscape:window-y="0"
     inkscape:window-maximized="1"
     inkscape:current-layer="layer1"
     inkscape:pageshadow="2">
    <inkscape:grid
       type="axonomgrid"
       id="grid132"
       units="px"
       originy="0"
       spacingy="6.6145832"
       gridanglex="30"
       empcolor="#000000"
       empopacity="0.30196078"
       color="#640010"
       opacity="0.14901961" />
  </sodipodi:namedview>
  <defs
     id="defs2" />
  <g
     inkscape:label="Layer 1"
     inkscape:groupmode="layer"
     id="layer1"
     transform="translate(-291.61911,63.067673)">
    <path
       style="fill:#19ac46;fill-opacity:1;stroke:#000000;stroke-width:0.264583px;stroke-linecap:butt;stroke-linejoin:miter;stroke-opacity:1"
       d="m 349.16766,16.42189 c 0,0 0,-13.229173 0,-13.229173 0,0 57.28396,-33.07292 57.28396,-33.07292 v 13.22917 L 349.16766,16.42189 V 3.192717"
       id="path2563" />
    <path
       style="fill:#19ac46;fill-opacity:1;stroke:#000000;stroke-width:0.264583px;stroke-linecap:butt;stroke-linejoin:miter;stroke-opacity:1"
       d="m 349.16766,-62.953105 57.28396,33.07291 -57.28396,33.0729193 c 0,0 -57.28397,-33.0729193 -57.28397,-33.0729193 l 57.28397,-33.07291"
       id="path2179"
       inkscape:export-filename="riverNS.svg"
       inkscape:export-xdpi="96"
       inkscape:export-ydpi="96" />
    <path
       style="fill:#19ac46;fill-opacity:1;stroke:#000000;stroke-width:0.264583px;stroke-linecap:butt;stroke-linejoin:miter;stroke-opacity:1"
       d="m 291.88369,-29.880197 v 13.22917 l 57.28397,33.072923 c 0,0 0,-13.2291737 0,-13.2291737 0,0 -57.28397,-33.0729193 -57.28397,-33.0729193"
       id="path2181" />
    <path
       style="fill:none;stroke:#000000;stroke-width:0.264583px;stroke-linecap:butt;stroke-linejoin:miter;stroke-opacity:1"
       d="M 363.62093,-4.8463665 Z"
       id="path236" />
    <path
       style="fill:#010502;fill-opacity:0.3;stroke:#000000;stroke-width:0.264583px;stroke-linecap:butt;stroke-linejoin:miter;stroke-opacity:1"
       d="m 291.88369,-29.880198 v 13.229169 l 57.28397,33.072924 c 0,0 0,-13.2291744 0,-13.2291744 0,0 -57.28397,-33.0729186 -57.28397,-33.0729186"
       id="path2539"
       inkscape:export-filename="riverEW.svg"
       inkscape:export-xdpi="96"
       inkscape:export-ydpi="96" />
    <path
       style="fill:#000000;fill-opacity:0.5;stroke:#000000;stroke-width:0.264583px;stroke-linecap:butt;stroke-linejoin:miter;stroke-opacity:1"
       d="m 349.16766,16.42189 c 0,0 0,-13.2291737 0,-13.2291737 0,0 57.28396,-33.0729193 57.28396,-33.0729193 v 13.229171 L 349.16766,16.42189 V 3.1927163"
       id="path2183"
       inkscape:export-filename="riverNS.svg"
       inkscape:export-xdpi="96"
       inkscape:export-ydpi="96" />
    <path
       style="fill:#004dff;fill-opacity:1;stroke:#000000;stroke-width:0.264999;stroke-dasharray:none;stroke-opacity:1"
       d="M 332.77345,-38.911527 Z"
       id="path8506" />
    <path
       style="fill:#004dff;fill-opacity:1;stroke:#000000;stroke-width:0.264999;stroke-dasharray:none;stroke-opacity:1"
       d="m 331.98247,-53.031237 40.09878,23.151042 c 0,0 11.45679,6.614583 0,13.229166 -11.45679,6.614583 -22.91359,0 -22.91359,0 l -40.09878,-23.151042 z"
       id="path8620"
       sodipodi:nodetypes="ccsccc" />
    <path
       style="fill:#4d4d4d;fill-opacity:1;stroke:#000000;stroke-width:0.264999;stroke-dasharray:none;stroke-opacity:1"
       d="M 320.52567,-33.187487 Z"
       id="path10591" />
  </g>
</svg>
